{
  "module-include":[
    "app.common"
  ],

  "release-export" :[
    "imgs/dot.png",
    "imgs/goplek.png",
    "imgs/goplek-black.png",
    "imgs/goplek-original.png",
    "imgs/goplek-plane.png",
    "imgs/goplek-wb.png",
    "imgs/goplek-wb-sm.png",
    "imgs/goplek-white.png"
  ]
}